%YAML 1.1
%TAG !u! tag:unity3d.com,2011:
--- !u!1 &4771541946701112500
GameObject:
  m_ObjectHideFlags: 0
  m_CorrespondingSourceObject: {fileID: 0}
  m_PrefabInstance: {fileID: 0}
  m_PrefabAsset: {fileID: 0}
  serializedVersion: 6
  m_Component:
  - component: {fileID: 4771541946701112501}
  - component: {fileID: 4771541946701112502}
  m_Layer: 0
  m_Name: VehicleList
  m_TagString: Untagged
  m_Icon: {fileID: 0}
  m_NavMeshLayer: 0
  m_StaticEditorFlags: 0
  m_IsActive: 1
--- !u!4 &4771541946701112501
Transform:
  m_ObjectHideFlags: 0
  m_CorrespondingSourceObject: {fileID: 0}
  m_PrefabInstance: {fileID: 0}
  m_PrefabAsset: {fileID: 0}
  m_GameObject: {fileID: 4771541946701112500}
  m_LocalRotation: {x: 0, y: 0, z: 0, w: 1}
  m_LocalPosition: {x: -9.112129, y: -1.5854934, z: -7.4556627}
  m_LocalScale: {x: 1, y: 1, z: 1}
  m_Children: []
  m_Father: {fileID: 0}
  m_RootOrder: 0
  m_LocalEulerAnglesHint: {x: 0, y: 0, z: 0}
--- !u!114 &4771541946701112502
MonoBehaviour:
  m_ObjectHideFlags: 0
  m_CorrespondingSourceObject: {fileID: 0}
  m_PrefabInstance: {fileID: 0}
  m_PrefabAsset: {fileID: 0}
  m_GameObject: {fileID: 4771541946701112500}
  m_Enabled: 1
  m_EditorHideFlags: 0
  m_Script: {fileID: 11500000, guid: 4d2b736545dfc804d83b248ec5a4cafa, type: 3}
  m_Name: 
  m_EditorClassIdentifier: 
  Vehicles:
  - {fileID: 4852128677742246390, guid: ef0ba6efccf42a64cb001d47b2654dc6, type: 3}
  - {fileID: 712083383075823823, guid: 551b2e7f9c0b2624980b1abcd1ce7758, type: 3}
  - {fileID: 2962088815592287996, guid: 717d1be84fab366489408807858fcb9d, type: 3}
  - {fileID: 2610125035370890679, guid: 7a1c876f724c2c74babf5b7174c678a9, type: 3}
  - {fileID: 8575107858281717366, guid: 15cc1dd741e888d429cc59c67ce78903, type: 3}
  - {fileID: 2201421293988407869, guid: 50e25194909aaec438821f5576bb5f2e, type: 3}
